%YAML 1.1
%TAG !u! tag:unity3d.com,2011:
--- !u!1045 &1
EditorBuildSettings:
  m_ObjectHideFlags: 0
  serializedVersion: 2
  m_Scenes:
  - enabled: 0
    path: Assets/_Scenes/EnviromentTest.unity
    guid: 21555191a7e1e2442ae87eec1a4b6e5d
  - enabled: 0
    path: Assets/_Scenes/MainMenu.unity
    guid: b42a11e49f3147f41a8d3757d80b2710
  - enabled: 1
    path: Assets/_Scenes/SampleScene.unity
    guid: 99c9720ab356a0642a771bea13969a05
  - enabled: 0
    path: Assets/_Scenes/Online/LobbyTest.unity
    guid: 89352ce9c0e94df47bf54be26e40d453
  - enabled: 0
    path: 
    guid: 00000000000000000000000000000000
  - enabled: 0
    path: Assets/_Scenes/Online/OnlineEnviroment.unity
    guid: 8566e6b596d1c9c40bc4ac33944f44ae
  - enabled: 0
    path: 
    guid: 00000000000000000000000000000000
  - enabled: 0
    path: Assets/_Scenes/Tracks/track_proto.unity
    guid: bf57d9fecebe154489a92683840fc756
  - enabled: 0
    path: Assets/_Scenes/Tracks/Track_02.unity
    guid: f43338c3dfaf789428cdcf6fd71c1509
  - enabled: 0
    path: Assets/_Scenes/_Missions/00_TutorialMission.unity
    guid: 6cf4c561fb68b724ca44427527bf926c
  m_configObjects: {}
